<svg width="40" height="48" viewBox="0 0 40 48" fill="none" xmlns="http://www.w3.org/2000/svg">
<rect width="40" height="48" fill="black"/>
<path d="M17 18L24 24.5L17 31" stroke="white" stroke-width="2"/>
</svg>
