<svg width="72" height="34" viewBox="0 0 72 34" fill="none" xmlns="http://www.w3.org/2000/svg">
<rect y="9.99768" width="72" height="24" rx="4" fill="#F85454"/>
<path d="M51.3177 28.9984H54.0027H55.5864H58.4145L59.9982 29H62.6832C64.0928 28.9987 65.4441 28.6061 66.4408 27.9081C67.4375 27.2102 67.9982 26.2639 68 25.2769C68.0008 23.2009 67.5208 21.1385 66.5787 19.17L64.8498 15.5515C64.5118 14.8415 64.4192 14.0854 64.5795 13.3455C64.7398 12.6055 65.1485 11.9027 65.7719 11.2948L66.8647 10.2317C67.6051 9.51398 68.0024 8.6507 68 7.76529C68.0023 7.22677 67.7904 6.69843 67.388 6.23951C66.9856 5.78059 66.4086 5.40923 65.7217 5.16704L61.7516 3.75638V0.554505C61.7516 0.481675 61.7312 0.409551 61.6914 0.342256C61.6516 0.274962 61.5933 0.213817 61.5198 0.162318C61.4462 0.110819 61.3589 0.0699762 61.2628 0.0421245C61.1667 0.0142727 61.0637 -4.15622e-05 60.9597 0H53.0412C52.8314 -8.40103e-05 52.6301 0.0581795 52.4816 0.161982C52.3331 0.265785 52.2496 0.40663 52.2493 0.553555V3.75638L48.2783 5.16672C47.5914 5.40891 47.0144 5.78028 46.612 6.2392C46.2096 6.69812 45.9977 7.22645 46 7.76498C45.9978 8.65056 46.3954 9.51397 47.1362 10.2317L48.2299 11.2948C48.8532 11.9028 49.2617 12.6056 49.4219 13.3455C49.582 14.0855 49.4892 14.8415 49.1511 15.5515L47.4222 19.17C46.4804 21.138 46.0004 23.1998 46.0009 25.2753C46.0027 26.2623 46.5634 27.2086 47.5601 27.9066C48.5568 28.6045 49.9081 28.9972 51.3177 28.9984Z" fill="#F85454"/>
<path d="M11.868 18.5817H9.132V17.5017H15.756V18.5817H13.02V25.9977H11.868V18.5817ZM15.6051 20.3097H16.6851V21.1857H16.7091C16.7811 21.0337 16.8771 20.8977 16.9971 20.7777C17.1171 20.6497 17.2491 20.5417 17.3931 20.4537C17.5451 20.3657 17.7091 20.2977 17.8851 20.2497C18.0611 20.1937 18.2371 20.1657 18.4131 20.1657C18.5891 20.1657 18.7491 20.1897 18.8931 20.2377L18.8451 21.4017C18.7571 21.3777 18.6691 21.3577 18.5811 21.3417C18.4931 21.3257 18.4051 21.3177 18.3171 21.3177C17.7891 21.3177 17.3851 21.4657 17.1051 21.7617C16.8251 22.0577 16.6851 22.5177 16.6851 23.1417V25.9977H15.6051V20.3097ZM19.3625 20.3097H20.6105L22.3025 24.7497H22.3265L23.9345 20.3097H25.0985L22.3985 27.2217C22.3025 27.4697 22.2025 27.6937 22.0985 27.8937C21.9945 28.1017 21.8705 28.2777 21.7265 28.4217C21.5825 28.5657 21.4065 28.6777 21.1985 28.7577C20.9985 28.8377 20.7505 28.8777 20.4545 28.8777C20.2945 28.8777 20.1305 28.8657 19.9625 28.8417C19.8025 28.8257 19.6465 28.7857 19.4945 28.7217L19.6265 27.7377C19.8425 27.8257 20.0585 27.8697 20.2745 27.8697C20.4425 27.8697 20.5825 27.8457 20.6945 27.7977C20.8145 27.7577 20.9145 27.6937 20.9945 27.6057C21.0825 27.5257 21.1545 27.4297 21.2105 27.3177C21.2665 27.2057 21.3225 27.0777 21.3785 26.9337L21.7265 26.0337L19.3625 20.3097ZM30.2623 23.1537C30.2623 23.4417 30.3063 23.7097 30.3943 23.9577C30.4823 24.1977 30.6063 24.4057 30.7663 24.5817C30.9263 24.7497 31.1223 24.8857 31.3543 24.9897C31.5863 25.0857 31.8463 25.1337 32.1343 25.1337C32.4223 25.1337 32.6823 25.0857 32.9143 24.9897C33.1463 24.8857 33.3423 24.7497 33.5023 24.5817C33.6623 24.4057 33.7863 24.1977 33.8743 23.9577C33.9623 23.7097 34.0063 23.4417 34.0063 23.1537C34.0063 22.8657 33.9623 22.6017 33.8743 22.3617C33.7863 22.1137 33.6623 21.9057 33.5023 21.7377C33.3423 21.5617 33.1463 21.4257 32.9143 21.3297C32.6823 21.2257 32.4223 21.1737 32.1343 21.1737C31.8463 21.1737 31.5863 21.2257 31.3543 21.3297C31.1223 21.4257 30.9263 21.5617 30.7663 21.7377C30.6063 21.9057 30.4823 22.1137 30.3943 22.3617C30.3063 22.6017 30.2623 22.8657 30.2623 23.1537ZM29.1103 23.1537C29.1103 22.7377 29.1863 22.3497 29.3383 21.9897C29.4983 21.6297 29.7143 21.3137 29.9863 21.0417C30.2583 20.7697 30.5783 20.5577 30.9463 20.4057C31.3143 20.2457 31.7103 20.1657 32.1343 20.1657C32.5583 20.1657 32.9543 20.2457 33.3223 20.4057C33.6903 20.5577 34.0103 20.7697 34.2823 21.0417C34.5543 21.3137 34.7663 21.6297 34.9183 21.9897C35.0783 22.3497 35.1583 22.7377 35.1583 23.1537C35.1583 23.5697 35.0783 23.9617 34.9183 24.3297C34.7663 24.6897 34.5543 25.0057 34.2823 25.2777C34.0103 25.5417 33.6903 25.7537 33.3223 25.9137C32.9543 26.0657 32.5583 26.1417 32.1343 26.1417C31.7103 26.1417 31.3143 26.0657 30.9463 25.9137C30.5783 25.7537 30.2583 25.5417 29.9863 25.2777C29.7143 25.0057 29.4983 24.6897 29.3383 24.3297C29.1863 23.9617 29.1103 23.5697 29.1103 23.1537ZM36.5113 20.3097H37.5913V21.1857H37.6153C37.7513 20.8817 37.9873 20.6377 38.3233 20.4537C38.6593 20.2617 39.0473 20.1657 39.4873 20.1657C39.7593 20.1657 40.0193 20.2097 40.2673 20.2977C40.5233 20.3777 40.7433 20.5057 40.9273 20.6817C41.1193 20.8577 41.2713 21.0857 41.3833 21.3657C41.4953 21.6377 41.5513 21.9617 41.5513 22.3377V25.9977H40.4713V22.6377C40.4713 22.3737 40.4353 22.1497 40.3633 21.9657C40.2913 21.7737 40.1953 21.6217 40.0753 21.5097C39.9553 21.3897 39.8153 21.3057 39.6553 21.2577C39.5033 21.2017 39.3433 21.1737 39.1753 21.1737C38.9513 21.1737 38.7433 21.2097 38.5513 21.2817C38.3593 21.3537 38.1913 21.4697 38.0473 21.6297C37.9033 21.7817 37.7913 21.9777 37.7113 22.2177C37.6313 22.4577 37.5913 22.7417 37.5913 23.0697V25.9977H36.5113V20.3097Z" fill="white"/>
<path d="M52.0702 29.0191H54.8657V23.7345H53.1531C52.2541 23.7336 51.3922 23.4529 50.7564 22.9538C50.1207 22.4548 49.7631 21.7782 49.7619 21.0724C49.7616 19.5884 50.0677 18.1141 50.6685 16.707L51.7712 14.1197C51.9869 13.612 52.0461 13.0715 51.9439 12.5424C51.8418 12.0133 51.5812 11.5107 51.1836 11.076L50.4861 10.3159C50.0136 9.80272 49.7599 9.18536 49.7614 8.55214C49.7599 8.16708 49.8951 7.78931 50.1517 7.46117C50.4084 7.13303 50.7764 6.8675 51.2145 6.69433L53.7474 5.6859V3.3958C53.7475 3.29075 53.8008 3.19004 53.8955 3.11582C53.9902 3.0416 54.1186 2.99994 54.2524 3H59.3031C59.3695 2.99997 59.4351 3.01021 59.4964 3.03012C59.5577 3.05003 59.6134 3.07924 59.6603 3.11606C59.7072 3.15288 59.7444 3.1966 59.7698 3.24472C59.7952 3.29284 59.8082 3.34441 59.8082 3.39648V5.6859L62.3405 6.69455C62.7786 6.86772 63.1466 7.13326 63.4032 7.4614C63.6599 7.78954 63.7951 8.16731 63.7936 8.55237C63.7952 9.18545 63.5417 9.80272 63.0695 10.3159L62.3725 11.076C61.9748 11.5107 61.7142 12.0132 61.6119 12.5423C61.5097 13.0714 61.5687 13.612 61.7843 14.1197L62.8871 16.707C63.488 18.1145 63.7941 19.5892 63.7936 21.0736C63.7925 21.7793 63.4348 22.4559 62.7991 22.955C62.1634 23.454 61.3015 23.7348 60.4024 23.7357H58.6898V29.0202H61.4856C62.3582 29.021 63.1948 29.2934 63.8119 29.7777C64.4291 30.2619 64.7764 30.9185 64.7778 31.6035C64.7778 31.6556 64.7648 31.7072 64.7394 31.7553C64.714 31.8034 64.6768 31.8471 64.6299 31.8839C64.583 31.9208 64.5273 31.95 64.466 31.9699C64.4047 31.9898 64.339 32 64.2727 32H49.2828C49.1489 32 49.0204 31.9582 48.9257 31.8839C48.831 31.8095 48.7778 31.7087 48.7778 31.6035C48.7788 30.9183 49.126 30.2614 49.7432 29.7769C50.3605 29.2923 51.1974 29.0198 52.0702 29.0191Z" fill="white"/>
</svg>
